{
  "_ts": 1780458285.1655843,
  "videos": [
    {
      "id": "bilibili_116677568105053",
      "source": "bilibili",
      "title": "和你聊会儿｜曾沛慈：我花了很久，才找到自己",
      "url": "https://www.bilibili.com/video/BV1y5Vi61E1v",
      "thumbnail": "/api/thumbnail?url=http%3A%2F%2Fi1.hdslb.com%2Fbfs%2Farchive%2F0cf188e59136857c55df26230c76bfd5c4047f70.jpg",
      "author": "澎湃新闻",
      "duration": "37:35",
      "duration_seconds": 2255,
      "duration_badge": "30-60分钟",
      "views": "49.0万",
      "views_raw": 489909,
      "danmaku": "6051",
      "likes": "2.0万",
      "likes_raw": 20487,
      "category": "社会",
      "description": "因参加一档热门综艺节目，曾沛慈再度回到大众视野。5月下旬，在节目录制的间隙，我在长沙见到了她。她说节目挑战远超预期，也提到曾被 “雷婷” 标签困扰。面对流量、年龄与感情，她坦言也曾有过迷茫与纠结，“我就是边跌倒边学习，花了很长时间，才找到自己。”",
      "published": 1780358611,
      "published_str": "2026-06-02",
      "embed_id": "BV1y5Vi61E1v",
      "embed_src": "bilibili",
      "summary": null,
      "favorited": false,
      "score": 3682.0
    },
    {
      "id": "bilibili_116655892010800",
      "source": "bilibili",
      "title": "【毕导】这是什么妖术？酒在坛子里是绿色，舀出来瞬间变红！",
      "url": "https://www.bilibili.com/video/BV1JiVb6EEi7",
      "thumbnail": "/api/thumbnail?url=http%3A%2F%2Fi1.hdslb.com%2Fbfs%2Farchive%2F67c02fd5b738788bb636f8e70fdd97dd2934625a.jpg",
      "author": "毕导",
      "duration": "12:40",
      "duration_seconds": 760,
      "duration_badge": "10-30分钟",
      "views": "940.2万",
      "views_raw": 9402015,
      "danmaku": "2.4万",
      "likes": "42.4万",
      "likes_raw": 424425,
      "category": "科学科普",
      "description": "一个诡异的卖酒视频，让我差点走上犯罪的道路。\n\n————————————————————————————\n你还可以看看:  \n我预言了一个物理规律，历时100天我证明了它 BV1wPoVB7Egv \n这个现象你肯定见过，但初中教材上的解释几乎都是错的 BV18yXbB8EJw \n这条线看得清摸得着，但你永远测不出它的长度 BV1MbFXz5Esa \n光一直在欺骗你，而只有开塞露可以揭穿它 BV1cyS3BdECH \n地球是平的？不要随便跟网友辩论…… BV1iCpozfE8w \n这个定律，预言了你的人生进",
      "published": 1780027992,
      "published_str": "2026-05-29",
      "embed_id": "BV1JiVb6EEi7",
      "embed_src": "bilibili",
      "summary": null,
      "favorited": false,
      "score": 3643.3
    },
    {
      "id": "bilibili_116674799864807",
      "source": "bilibili",
      "title": "杀人热浪如何卡死印度发展命脉？",
      "url": "https://www.bilibili.com/video/BV12SVo6GE6E",
      "thumbnail": "/api/thumbnail?url=http%3A%2F%2Fi0.hdslb.com%2Fbfs%2Farchive%2Fbca8168108de85cd8db3fc2b5647ee07388ed6bc.jpg",
      "author": "世界见闻录",
      "duration": "14:44",
      "duration_seconds": 884,
      "duration_badge": "10-30分钟",
      "views": "56.7万",
      "views_raw": 566589,
      "danmaku": "3245",
      "likes": "3.3万",
      "likes_raw": 32665,
      "category": "设计创意",
      "description": "制作：见闻工作室\n编委会：云汉 郭歆 柿子 王景兴 饼干\n监制：云汉 王景兴\n总监：郭歆\n主编：柿子\n策划：云汉 郭歆 柿子 王景兴\n文案：郭歆 柿子\n配音：柿子\n后期：一折\n编辑：饼干\n\n参考资料：\n红星新闻 《养鸡场5300只鸡热死！45℃高温+燃料短缺断电，印度经济增速预期下滑》\n               《局地逼近50摄氏度！印度多地热浪来袭：民众下午不出门，学校提前放暑假》\n光明日报 《印度，不寻常的热浪》\n央视13台 《印度多地高温 新德里发布高温橙色预警》\n央视网 《印度首都或将遭遇45",
      "published": 1780394700,
      "published_str": "2026-06-02",
      "embed_id": "BV12SVo6GE6E",
      "embed_src": "bilibili",
      "summary": null,
      "favorited": false,
      "score": 3015.6
    },
    {
      "id": "bilibili_116645641132959",
      "source": "bilibili",
      "title": "33人被困地下700米两个月，比断水断粮更恐怖的是什么？全景还原智利矿难救援奇迹",
      "url": "https://www.bilibili.com/video/BV1wDGy6cE2Q",
      "thumbnail": "/api/thumbnail?url=http%3A%2F%2Fi2.hdslb.com%2Fbfs%2Farchive%2F843b25e35f99b58564e6e7d8cb2e70df783e8809.jpg",
      "author": "掣驰工作室",
      "duration": "36:41",
      "duration_seconds": 2201,
      "duration_badge": "30-60分钟",
      "views": "175.6万",
      "views_raw": 1755630,
      "danmaku": "5531",
      "likes": "8.1万",
      "likes_raw": 80963,
      "category": "设计创意",
      "description": "视频中动画全部为人工制作\n视频内容取材于赫克托·托巴尔所著矿工回忆录《DEEP DOWN DARK》",
      "published": 1780110000,
      "published_str": "2026-05-30",
      "embed_id": "BV1wDGy6cE2Q",
      "embed_src": "bilibili",
      "summary": null,
      "favorited": false,
      "score": 2106.5
    },
    {
      "id": "bilibili_116674145616912",
      "source": "bilibili",
      "title": "高考别忘了到考场啊！",
      "url": "https://www.bilibili.com/video/BV1SsVZ6EE1A",
      "thumbnail": "/api/thumbnail?url=http%3A%2F%2Fi2.hdslb.com%2Fbfs%2Farchive%2Ff1b9c9405023623692ca421b1543e42a1cfbf491.jpg",
      "author": "太阳星sunstar",
      "duration": "7:15",
      "duration_seconds": 435,
      "duration_badge": "5-10分钟",
      "views": "32.6万",
      "views_raw": 326010,
      "danmaku": "915",
      "likes": "1.6万",
      "likes_raw": 16381,
      "category": "设计创意",
      "description": "有什么疑问请弹幕留言\n嗷！别忘了点赞三连\n———————————————\n\n一个关于“光”最隐蔽的问题，登月造假？信号转换与True RGB BV1sr5e6VEcH\n重活一世，我面前竟是一棵树 BV15cdgBZEiJ\n顿顿吃拼好饭的，到底是什么样的人？BV1uaPKz8Esa",
      "published": 1780395300,
      "published_str": "2026-06-02",
      "embed_id": "BV1SsVZ6EE1A",
      "embed_src": "bilibili",
      "summary": null,
      "favorited": false,
      "score": 1156.7
    },
    {
      "id": "youtube_4io0nAtQ_fY",
      "source": "youtube",
      "title": "Sharing your truth may just help others find theirs. #TEDTalks",
      "url": "https://www.youtube.com/watch?v=4io0nAtQ_fY",
      "thumbnail": "https://i1.ytimg.com/vi/4io0nAtQ_fY/hqdefault.jpg",
      "author": "TED",
      "duration": "",
      "duration_seconds": 0,
      "duration_badge": "",
      "views": "",
      "views_raw": 0,
      "danmaku": "",
      "likes": "",
      "likes_raw": 0,
      "category": "教育",
      "description": "When fashion model Geena Rocero first saw a photo of herself in a bikini, \"I thought ... you have arrived!\" As she reveals, that's because she was born with the gender assignment \"boy.\" In this moving talk, Rocero tells the story of becoming who she always knew she was.",
      "published": 1780434026,
      "published_str": "2026-06-02",
      "embed_id": "4io0nAtQ_fY",
      "embed_src": "youtube",
      "summary": null,
      "favorited": false,
      "score": 4.5
    },
    {
      "id": "youtube_nVktfvXrL0w",
      "source": "youtube",
      "title": "Are we too reliant on American tech companies? | Bruno Giussani | TEDxPorto",
      "url": "https://www.youtube.com/watch?v=nVktfvXrL0w",
      "thumbnail": "https://i3.ytimg.com/vi/nVktfvXrL0w/hqdefault.jpg",
      "author": "TEDx Talks",
      "duration": "",
      "duration_seconds": 0,
      "duration_badge": "",
      "views": "",
      "views_raw": 0,
      "danmaku": "",
      "likes": "",
      "likes_raw": 0,
      "category": "教育",
      "description": "Between artificial intelligence and geopolitics, in this talk he discusses the growing algorithmisation of our lives, Europe’s problematic dependency on US digital platforms, and the need for the contintent to de-americanize as much as possible its technology uses and infrastructures, and he puts fo",
      "published": 1780419605,
      "published_str": "2026-06-02",
      "embed_id": "nVktfvXrL0w",
      "embed_src": "youtube",
      "summary": null,
      "favorited": false,
      "score": 4.5
    },
    {
      "id": "youtube_rlnjiMBRBwQ",
      "source": "youtube",
      "title": "The Lonely American Dream: From Crisis to CoLiving | Samuel Wegert | TEDxCharlotte",
      "url": "https://www.youtube.com/watch?v=rlnjiMBRBwQ",
      "thumbnail": "https://i3.ytimg.com/vi/rlnjiMBRBwQ/hqdefault.jpg",
      "author": "TEDx Talks",
      "duration": "",
      "duration_seconds": 0,
      "duration_badge": "",
      "views": "",
      "views_raw": 0,
      "danmaku": "",
      "likes": "",
      "likes_raw": 0,
      "category": "教育",
      "description": "Loneliness is rising. Housing costs are crushing working people. And homelessness continues to grow. In this TEDx talk, Sam Wegert argues the American Dream needs an update—and the answer might not be new construction, but unused space.\n\nSam explains CoLiving (co living): renting private rooms withi",
      "published": 1780419600,
      "published_str": "2026-06-02",
      "embed_id": "rlnjiMBRBwQ",
      "embed_src": "youtube",
      "summary": null,
      "favorited": false,
      "score": 4.5
    },
    {
      "id": "youtube_u5RaGx5da8c",
      "source": "youtube",
      "title": "Rethinking Strictness and Discipline | Justin Li | TEDxYCYW Shanghai Youth",
      "url": "https://www.youtube.com/watch?v=u5RaGx5da8c",
      "thumbnail": "https://i2.ytimg.com/vi/u5RaGx5da8c/hqdefault.jpg",
      "author": "TEDx Talks",
      "duration": "",
      "duration_seconds": 0,
      "duration_badge": "",
      "views": "",
      "views_raw": 0,
      "danmaku": "",
      "likes": "",
      "likes_raw": 0,
      "category": "教育",
      "description": "In this inspiring TEDx talk, Justin Li shares how his strict badminton coach, once labelled the “Devil Coach”, taught him the true power of communication. From fear and misunderstanding to heartfelt connection, he learns to look beyond first impressions and recognise the coach’s tough love and genui",
      "published": 1780419598,
      "published_str": "2026-06-02",
      "embed_id": "u5RaGx5da8c",
      "embed_src": "youtube",
      "summary": null,
      "favorited": false,
      "score": 4.5
    },
    {
      "id": "youtube_qG_fzjdK8aQ",
      "source": "youtube",
      "title": "Infinite Effort, Zero Learning: The Sisyphus Problem | Strahinja Kukin | TEDxCSN Youth",
      "url": "https://www.youtube.com/watch?v=qG_fzjdK8aQ",
      "thumbnail": "https://i2.ytimg.com/vi/qG_fzjdK8aQ/hqdefault.jpg",
      "author": "TEDx Talks",
      "duration": "",
      "duration_seconds": 0,
      "duration_badge": "",
      "views": "",
      "views_raw": 0,
      "danmaku": "",
      "likes": "",
      "likes_raw": 0,
      "category": "教育",
      "description": "Contemporary culture often encourages people to “embrace failure” as if failure itself guarantees improvement. Yet repetition alone does not necessarily lead to learning. The myth of Sisyphus illustrates infinite effort without development: the same action repeated endlessly without change. Failure ",
      "published": 1780419589,
      "published_str": "2026-06-02",
      "embed_id": "qG_fzjdK8aQ",
      "embed_src": "youtube",
      "summary": null,
      "favorited": false,
      "score": 4.5
    },
    {
      "id": "youtube_pyDZpDkU46Y",
      "source": "youtube",
      "title": "The dark origins of Disney fairy tales - Claudia Schwabe",
      "url": "https://www.youtube.com/watch?v=pyDZpDkU46Y",
      "thumbnail": "https://i1.ytimg.com/vi/pyDZpDkU46Y/hqdefault.jpg",
      "author": "TED-Ed",
      "duration": "",
      "duration_seconds": 0,
      "duration_badge": "",
      "views": "",
      "views_raw": 0,
      "danmaku": "",
      "likes": "",
      "likes_raw": 0,
      "category": "教育",
      "description": "Dig into the infamous tales of the Brothers Grimm, and explore how these gory stories evolved as they spread around the world.\n\n--\n\nAn evil stepmother demands a maiden’s lungs and liver; a girl is ripped from a wolf’s stomach; and sisters mutilate their feet to squeeze into a gold slipper. During th",
      "published": 1780412447,
      "published_str": "2026-06-02",
      "embed_id": "pyDZpDkU46Y",
      "embed_src": "youtube",
      "summary": null,
      "favorited": false,
      "score": 4.5
    },
    {
      "id": "youtube_BI3TXc1WtJ8",
      "source": "youtube",
      "title": "The Missing Ingredient in Every Peace Deal | Hiba Qasas | TED",
      "url": "https://www.youtube.com/watch?v=BI3TXc1WtJ8",
      "thumbnail": "https://i3.ytimg.com/vi/BI3TXc1WtJ8/hqdefault.jpg",
      "author": "TED",
      "duration": "",
      "duration_seconds": 0,
      "duration_badge": "",
      "views": "",
      "views_raw": 0,
      "danmaku": "",
      "likes": "",
      "likes_raw": 0,
      "category": "教育",
      "description": "What if the path to peace starts with self-interest? After four decades inside some of the world's most dangerous conflict zones, mediator Hiba Qasas has learned that most peacebuilding efforts get it wrong from the start. She makes a provocative case that conciliation shouldn't begin with empathy —",
      "published": 1780412436,
      "published_str": "2026-06-02",
      "embed_id": "BI3TXc1WtJ8",
      "embed_src": "youtube",
      "summary": null,
      "favorited": false,
      "score": 4.5
    },
    {
      "id": "youtube_nGuYas7G3q4",
      "source": "youtube",
      "title": "A Whale’s-Eye-View of the Ocean | Eric Stackpole | TED",
      "url": "https://www.youtube.com/watch?v=nGuYas7G3q4",
      "thumbnail": "https://i3.ytimg.com/vi/nGuYas7G3q4/hqdefault.jpg",
      "author": "TED",
      "duration": "",
      "duration_seconds": 0,
      "duration_badge": "",
      "views": "",
      "views_raw": 0,
      "danmaku": "",
      "likes": "",
      "likes_raw": 0,
      "category": "教育",
      "description": "A hand-built camera with suction cups captured something no one had ever seen: two sperm whales communicating and swimming together in the deep ocean. Engineer Eric Stackpole shares the story of how a scrappy, DIY tool revealed this intimate glimpse into the lives of these giants — and makes the cas",
      "published": 1780333216,
      "published_str": "2026-06-01",
      "embed_id": "nGuYas7G3q4",
      "embed_src": "youtube",
      "summary": null,
      "favorited": false,
      "score": 3.8
    },
    {
      "id": "youtube_kQCQwMaSzV8",
      "source": "youtube",
      "title": "This might just be the *messiest* TED Talk of all time #TEDTalks",
      "url": "https://www.youtube.com/watch?v=kQCQwMaSzV8",
      "thumbnail": "https://i4.ytimg.com/vi/kQCQwMaSzV8/hqdefault.jpg",
      "author": "TED",
      "duration": "",
      "duration_seconds": 0,
      "duration_badge": "",
      "views": "",
      "views_raw": 0,
      "danmaku": "",
      "likes": "",
      "likes_raw": 0,
      "category": "教育",
      "description": "Mark Rober spent years trying to land a rover on Mars. Now, the former NASA engineer turned science YouTuber with millions of subscribers is launching a new mission: to teach the next generation of big problem solvers. That's why he's spending 60 million dollars to build a STEM curriculum kids actua",
      "published": 1780323974,
      "published_str": "2026-06-01",
      "embed_id": "kQCQwMaSzV8",
      "embed_src": "youtube",
      "summary": null,
      "favorited": false,
      "score": 3.8
    },
    {
      "id": "youtube_oed0Z2RIs14",
      "source": "youtube",
      "title": "Hannity: Clearly it is time for new leadership in California #shorts #foxnews #news #us",
      "url": "https://www.youtube.com/watch?v=oed0Z2RIs14",
      "thumbnail": "https://i4.ytimg.com/vi/oed0Z2RIs14/hqdefault.jpg",
      "author": "Bloomberg Originals",
      "duration": "",
      "duration_seconds": 0,
      "duration_badge": "",
      "views": "",
      "views_raw": 0,
      "danmaku": "",
      "likes": "",
      "likes_raw": 0,
      "category": "教育",
      "description": "Fox News host Sean Hannity discusses the Los Angeles mayoral race and argues Democratic rule has harmed California on ‘Hannity.’ #fox #media #breakingnews #us #usa #new #news #breaking #foxnews #hannity #seanhannity #hannity #california #losangeles #leadership #politics #political #politicalnews #go",
      "published": 1780455634,
      "published_str": "2026-06-03",
      "embed_id": "oed0Z2RIs14",
      "embed_src": "youtube",
      "summary": null,
      "favorited": false,
      "score": 3.0
    },
    {
      "id": "youtube_6RKouFY4On0",
      "source": "youtube",
      "title": "Gutfeld: The biggest scandal of ALL…",
      "url": "https://www.youtube.com/watch?v=6RKouFY4On0",
      "thumbnail": "https://i3.ytimg.com/vi/6RKouFY4On0/hqdefault.jpg",
      "author": "Bloomberg Originals",
      "duration": "",
      "duration_seconds": 0,
      "duration_badge": "",
      "views": "",
      "views_raw": 0,
      "danmaku": "",
      "likes": "",
      "likes_raw": 0,
      "category": "教育",
      "description": "Fox News host Greg Gutfeld and the ‘Gutfeld!’ panel discuss a former New York Times columnist calling for the ‘de-magafication’ of America. #fox #media #breakingnews #us #usa #new #news #breaking #foxnews #gutfeld #greggutfeld #gutfeldpanel #newyorktimes #maga #demagafication #america #politics #pol",
      "published": 1780455606,
      "published_str": "2026-06-03",
      "embed_id": "6RKouFY4On0",
      "embed_src": "youtube",
      "summary": null,
      "favorited": false,
      "score": 3.0
    },
    {
      "id": "youtube_yH_aLVbehSQ",
      "source": "youtube",
      "title": "Netan-yah-WHOA: Tensions reportedly rise between allies as fresh strikes test fragile ceasefire",
      "url": "https://www.youtube.com/watch?v=yH_aLVbehSQ",
      "thumbnail": "https://i2.ytimg.com/vi/yH_aLVbehSQ/hqdefault.jpg",
      "author": "Bloomberg Originals",
      "duration": "",
      "duration_seconds": 0,
      "duration_badge": "",
      "views": "",
      "views_raw": 0,
      "danmaku": "",
      "likes": "",
      "likes_raw": 0,
      "category": "教育",
      "description": "President Donald Trump reportedly 'steamrolled' Israeli Prime Minister Benjamin Netanyahu during a heated call Monday over Israel's military operations in Lebanon.\n\n\n#fox #media #breakingnews #us #usa #new #news #breaking #foxnews #trump #donaldtrump #netanyahu #benjaminnetanyahu #israel #lebanon #c",
      "published": 1780452902,
      "published_str": "2026-06-03",
      "embed_id": "yH_aLVbehSQ",
      "embed_src": "youtube",
      "summary": null,
      "favorited": false,
      "score": 3.0
    },
    {
      "id": "youtube_8MWKiPWug2k",
      "source": "youtube",
      "title": "Watters: This could shock THE WORLD… #shorts #foxnews #fox #news #usa #us",
      "url": "https://www.youtube.com/watch?v=8MWKiPWug2k",
      "thumbnail": "https://i1.ytimg.com/vi/8MWKiPWug2k/hqdefault.jpg",
      "author": "Bloomberg Originals",
      "duration": "",
      "duration_seconds": 0,
      "duration_badge": "",
      "views": "",
      "views_raw": 0,
      "danmaku": "",
      "likes": "",
      "likes_raw": 0,
      "category": "教育",
      "description": "Fox News host Jesse Watters talks California primary elections, focusing on the gubernatorial and Los Angeles mayoral races, on ‘Jesse Watters Primetime.’ #fox #media #breakingnews #us #usa #new #news #breaking #foxnews #jessewattersprimetime #jessewatters #watters #california #californiaprimary #gu",
      "published": 1780452011,
      "published_str": "2026-06-03",
      "embed_id": "8MWKiPWug2k",
      "embed_src": "youtube",
      "summary": null,
      "favorited": false,
      "score": 3.0
    },
    {
      "id": "youtube_xuQgqrcWm-o",
      "source": "youtube",
      "title": "5 Weird Things We Figured Out On the ISS",
      "url": "https://www.youtube.com/watch?v=xuQgqrcWm-o",
      "thumbnail": "https://i1.ytimg.com/vi/xuQgqrcWm-o/hqdefault.jpg",
      "author": "SciShow",
      "duration": "",
      "duration_seconds": 0,
      "duration_badge": "",
      "views": "",
      "views_raw": 0,
      "danmaku": "",
      "likes": "",
      "likes_raw": 0,
      "category": "教育",
      "description": "Visit https://brilliant.org/scishow/ to get started learning STEM for free for a full 30 days and get 20% off your annual premium subscription.\n\nThe International Space Station has been home to humans for over 25 years. And over the decades, those humans have helped scientists on the ground run a bu",
      "published": 1780421228,
      "published_str": "2026-06-02",
      "embed_id": "xuQgqrcWm-o",
      "embed_src": "youtube",
      "summary": null,
      "favorited": false,
      "score": 3.0
    },
    {
      "id": "youtube_-sYDCt_NFIM",
      "source": "youtube",
      "title": "Sometimes, the more you learn about something, the more curious you become. Follow that curiosity.",
      "url": "https://www.youtube.com/watch?v=-sYDCt_NFIM",
      "thumbnail": "https://i2.ytimg.com/vi/-sYDCt_NFIM/hqdefault.jpg",
      "author": "freeCodeCamp.org",
      "duration": "",
      "duration_seconds": 0,
      "duration_badge": "",
      "views": "",
      "views_raw": 0,
      "danmaku": "",
      "likes": "",
      "likes_raw": 0,
      "category": "教育",
      "description": "Sometimes, the more you learn about something, the more curious you become. Chris talks about following that curiosity with Quincy on the freeCodeCamp podcast.",
      "published": 1780401934,
      "published_str": "2026-06-02",
      "embed_id": "-sYDCt_NFIM",
      "embed_src": "youtube",
      "summary": null,
      "favorited": false,
      "score": 3.0
    },
    {
      "id": "youtube_rZHMzNCIdMU",
      "source": "youtube",
      "title": "My Typical Tuesday",
      "url": "https://www.youtube.com/watch?v=rZHMzNCIdMU",
      "thumbnail": "https://i3.ytimg.com/vi/rZHMzNCIdMU/hqdefault.jpg",
      "author": "Ali Abdaal",
      "duration": "",
      "duration_seconds": 0,
      "duration_badge": "",
      "views": "",
      "views_raw": 0,
      "danmaku": "",
      "likes": "",
      "likes_raw": 0,
      "category": "教育",
      "description": "Master deep focus in 7 days - my free crash course to transform your productivity: https://go.aliabdaal.com/yts260602",
      "published": 1780394425,
      "published_str": "2026-06-02",
      "embed_id": "rZHMzNCIdMU",
      "embed_src": "youtube",
      "summary": null,
      "favorited": false,
      "score": 3.0
    },
    {
      "id": "youtube_MnG0ugK2JAI",
      "source": "youtube",
      "title": "Build Your Own AI Agent – Full Course with OpenAI, Langchain, Render Deployment",
      "url": "https://www.youtube.com/watch?v=MnG0ugK2JAI",
      "thumbnail": "https://i2.ytimg.com/vi/MnG0ugK2JAI/hqdefault.jpg",
      "author": "freeCodeCamp.org",
      "duration": "",
      "duration_seconds": 0,
      "duration_badge": "",
      "views": "",
      "views_raw": 0,
      "danmaku": "",
      "likes": "",
      "likes_raw": 0,
      "category": "教育",
      "description": "Learn to build and deploy intelligent AI agents that bridge the gap between LLMs and real-world automation to handle complex research and data analysis. This comprehensive course takes you from zero to deployment, using OpenAI and Node.js to create a production-ready tool complete with a PostgreSQL ",
      "published": 1780394409,
      "published_str": "2026-06-02",
      "embed_id": "MnG0ugK2JAI",
      "embed_src": "youtube",
      "summary": null,
      "favorited": false,
      "score": 3.0
    },
    {
      "id": "youtube_kS-CGkiPetQ",
      "source": "youtube",
      "title": "How Does Google Maps Actually Work?",
      "url": "https://www.youtube.com/watch?v=kS-CGkiPetQ",
      "thumbnail": "https://i4.ytimg.com/vi/kS-CGkiPetQ/hqdefault.jpg",
      "author": "Veritasium",
      "duration": "",
      "duration_seconds": 0,
      "duration_badge": "",
      "views": "",
      "views_raw": 0,
      "danmaku": "",
      "likes": "",
      "likes_raw": 0,
      "category": "教育",
      "description": "The math behind Google Maps. Sponsored by boot.dev - Click this link https://boot.dev/?promo=VERITASIUM and use our code VERITASIUM to get 25% off your first payment for boot.dev. \n\nIf you’re looking for a molecular modelling kit, try Snatoms, a kit I invented where the atoms snap together magnetica",
      "published": 1780152403,
      "published_str": "2026-05-30",
      "embed_id": "kS-CGkiPetQ",
      "embed_src": "youtube",
      "summary": null,
      "favorited": false,
      "score": 3.0
    },
    {
      "id": "youtube_BlK23YzqXOM",
      "source": "youtube",
      "title": "Why your best ideas usually start as bad ones | Think Like A Musician",
      "url": "https://www.youtube.com/watch?v=BlK23YzqXOM",
      "thumbnail": "https://i3.ytimg.com/vi/BlK23YzqXOM/hqdefault.jpg",
      "author": "TED-Ed",
      "duration": "",
      "duration_seconds": 0,
      "duration_badge": "",
      "views": "",
      "views_raw": 0,
      "danmaku": "",
      "likes": "",
      "likes_raw": 0,
      "category": "教育",
      "description": "Professional songwriters share the importance of embracing mistakes, collaboration, and experimentation in the creative process.\n\n--\n\n\"Think Like A Musician\" connects you with working musicians who want to help the music-curious and music-passionate hone and share the gift of music with the world. P",
      "published": 1779980454,
      "published_str": "2026-05-28",
      "embed_id": "BlK23YzqXOM",
      "embed_src": "youtube",
      "summary": null,
      "favorited": false,
      "score": 3.0
    }
  ],
  "total": 81,
  "page": 1,
  "per_page": 24,
  "has_more": true,
  "categories": [
    "知识",
    "科学科普",
    "社科法律",
    "人文历史",
    "财经商业",
    "科技",
    "数码",
    "计算机技术",
    "科工机械",
    "极客DIY",
    "纪录片",
    "科学探索",
    "校园学习",
    "演讲公开课",
    "职业职场",
    "设计创意",
    "野生技术协会",
    "资讯",
    "环球"
  ],
  "search": null
}