{
  "_ts": 1780458285.166588,
  "videos": [
    {
      "id": "youtube_4io0nAtQ_fY",
      "source": "youtube",
      "title": "Sharing your truth may just help others find theirs. #TEDTalks",
      "url": "https://www.youtube.com/watch?v=4io0nAtQ_fY",
      "thumbnail": "https://i1.ytimg.com/vi/4io0nAtQ_fY/hqdefault.jpg",
      "author": "TED",
      "duration": "",
      "duration_seconds": 0,
      "duration_badge": "",
      "views": "",
      "views_raw": 0,
      "danmaku": "",
      "likes": "",
      "likes_raw": 0,
      "category": "教育",
      "description": "When fashion model Geena Rocero first saw a photo of herself in a bikini, \"I thought ... you have arrived!\" As she reveals, that's because she was born with the gender assignment \"boy.\" In this moving talk, Rocero tells the story of becoming who she always knew she was.",
      "published": 1780434026,
      "published_str": "2026-06-02",
      "embed_id": "4io0nAtQ_fY",
      "embed_src": "youtube",
      "summary": null,
      "favorited": false,
      "score": 4.5
    },
    {
      "id": "youtube_nVktfvXrL0w",
      "source": "youtube",
      "title": "Are we too reliant on American tech companies? | Bruno Giussani | TEDxPorto",
      "url": "https://www.youtube.com/watch?v=nVktfvXrL0w",
      "thumbnail": "https://i3.ytimg.com/vi/nVktfvXrL0w/hqdefault.jpg",
      "author": "TEDx Talks",
      "duration": "",
      "duration_seconds": 0,
      "duration_badge": "",
      "views": "",
      "views_raw": 0,
      "danmaku": "",
      "likes": "",
      "likes_raw": 0,
      "category": "教育",
      "description": "Between artificial intelligence and geopolitics, in this talk he discusses the growing algorithmisation of our lives, Europe’s problematic dependency on US digital platforms, and the need for the contintent to de-americanize as much as possible its technology uses and infrastructures, and he puts fo",
      "published": 1780419605,
      "published_str": "2026-06-02",
      "embed_id": "nVktfvXrL0w",
      "embed_src": "youtube",
      "summary": null,
      "favorited": false,
      "score": 4.5
    },
    {
      "id": "youtube_rlnjiMBRBwQ",
      "source": "youtube",
      "title": "The Lonely American Dream: From Crisis to CoLiving | Samuel Wegert | TEDxCharlotte",
      "url": "https://www.youtube.com/watch?v=rlnjiMBRBwQ",
      "thumbnail": "https://i3.ytimg.com/vi/rlnjiMBRBwQ/hqdefault.jpg",
      "author": "TEDx Talks",
      "duration": "",
      "duration_seconds": 0,
      "duration_badge": "",
      "views": "",
      "views_raw": 0,
      "danmaku": "",
      "likes": "",
      "likes_raw": 0,
      "category": "教育",
      "description": "Loneliness is rising. Housing costs are crushing working people. And homelessness continues to grow. In this TEDx talk, Sam Wegert argues the American Dream needs an update—and the answer might not be new construction, but unused space.\n\nSam explains CoLiving (co living): renting private rooms withi",
      "published": 1780419600,
      "published_str": "2026-06-02",
      "embed_id": "rlnjiMBRBwQ",
      "embed_src": "youtube",
      "summary": null,
      "favorited": false,
      "score": 4.5
    },
    {
      "id": "youtube_u5RaGx5da8c",
      "source": "youtube",
      "title": "Rethinking Strictness and Discipline | Justin Li | TEDxYCYW Shanghai Youth",
      "url": "https://www.youtube.com/watch?v=u5RaGx5da8c",
      "thumbnail": "https://i2.ytimg.com/vi/u5RaGx5da8c/hqdefault.jpg",
      "author": "TEDx Talks",
      "duration": "",
      "duration_seconds": 0,
      "duration_badge": "",
      "views": "",
      "views_raw": 0,
      "danmaku": "",
      "likes": "",
      "likes_raw": 0,
      "category": "教育",
      "description": "In this inspiring TEDx talk, Justin Li shares how his strict badminton coach, once labelled the “Devil Coach”, taught him the true power of communication. From fear and misunderstanding to heartfelt connection, he learns to look beyond first impressions and recognise the coach’s tough love and genui",
      "published": 1780419598,
      "published_str": "2026-06-02",
      "embed_id": "u5RaGx5da8c",
      "embed_src": "youtube",
      "summary": null,
      "favorited": false,
      "score": 4.5
    },
    {
      "id": "youtube_qG_fzjdK8aQ",
      "source": "youtube",
      "title": "Infinite Effort, Zero Learning: The Sisyphus Problem | Strahinja Kukin | TEDxCSN Youth",
      "url": "https://www.youtube.com/watch?v=qG_fzjdK8aQ",
      "thumbnail": "https://i2.ytimg.com/vi/qG_fzjdK8aQ/hqdefault.jpg",
      "author": "TEDx Talks",
      "duration": "",
      "duration_seconds": 0,
      "duration_badge": "",
      "views": "",
      "views_raw": 0,
      "danmaku": "",
      "likes": "",
      "likes_raw": 0,
      "category": "教育",
      "description": "Contemporary culture often encourages people to “embrace failure” as if failure itself guarantees improvement. Yet repetition alone does not necessarily lead to learning. The myth of Sisyphus illustrates infinite effort without development: the same action repeated endlessly without change. Failure ",
      "published": 1780419589,
      "published_str": "2026-06-02",
      "embed_id": "qG_fzjdK8aQ",
      "embed_src": "youtube",
      "summary": null,
      "favorited": false,
      "score": 4.5
    },
    {
      "id": "youtube_pyDZpDkU46Y",
      "source": "youtube",
      "title": "The dark origins of Disney fairy tales - Claudia Schwabe",
      "url": "https://www.youtube.com/watch?v=pyDZpDkU46Y",
      "thumbnail": "https://i1.ytimg.com/vi/pyDZpDkU46Y/hqdefault.jpg",
      "author": "TED-Ed",
      "duration": "",
      "duration_seconds": 0,
      "duration_badge": "",
      "views": "",
      "views_raw": 0,
      "danmaku": "",
      "likes": "",
      "likes_raw": 0,
      "category": "教育",
      "description": "Dig into the infamous tales of the Brothers Grimm, and explore how these gory stories evolved as they spread around the world.\n\n--\n\nAn evil stepmother demands a maiden’s lungs and liver; a girl is ripped from a wolf’s stomach; and sisters mutilate their feet to squeeze into a gold slipper. During th",
      "published": 1780412447,
      "published_str": "2026-06-02",
      "embed_id": "pyDZpDkU46Y",
      "embed_src": "youtube",
      "summary": null,
      "favorited": false,
      "score": 4.5
    },
    {
      "id": "youtube_BI3TXc1WtJ8",
      "source": "youtube",
      "title": "The Missing Ingredient in Every Peace Deal | Hiba Qasas | TED",
      "url": "https://www.youtube.com/watch?v=BI3TXc1WtJ8",
      "thumbnail": "https://i3.ytimg.com/vi/BI3TXc1WtJ8/hqdefault.jpg",
      "author": "TED",
      "duration": "",
      "duration_seconds": 0,
      "duration_badge": "",
      "views": "",
      "views_raw": 0,
      "danmaku": "",
      "likes": "",
      "likes_raw": 0,
      "category": "教育",
      "description": "What if the path to peace starts with self-interest? After four decades inside some of the world's most dangerous conflict zones, mediator Hiba Qasas has learned that most peacebuilding efforts get it wrong from the start. She makes a provocative case that conciliation shouldn't begin with empathy —",
      "published": 1780412436,
      "published_str": "2026-06-02",
      "embed_id": "BI3TXc1WtJ8",
      "embed_src": "youtube",
      "summary": null,
      "favorited": false,
      "score": 4.5
    },
    {
      "id": "youtube_nGuYas7G3q4",
      "source": "youtube",
      "title": "A Whale’s-Eye-View of the Ocean | Eric Stackpole | TED",
      "url": "https://www.youtube.com/watch?v=nGuYas7G3q4",
      "thumbnail": "https://i3.ytimg.com/vi/nGuYas7G3q4/hqdefault.jpg",
      "author": "TED",
      "duration": "",
      "duration_seconds": 0,
      "duration_badge": "",
      "views": "",
      "views_raw": 0,
      "danmaku": "",
      "likes": "",
      "likes_raw": 0,
      "category": "教育",
      "description": "A hand-built camera with suction cups captured something no one had ever seen: two sperm whales communicating and swimming together in the deep ocean. Engineer Eric Stackpole shares the story of how a scrappy, DIY tool revealed this intimate glimpse into the lives of these giants — and makes the cas",
      "published": 1780333216,
      "published_str": "2026-06-01",
      "embed_id": "nGuYas7G3q4",
      "embed_src": "youtube",
      "summary": null,
      "favorited": false,
      "score": 3.8
    },
    {
      "id": "youtube_kQCQwMaSzV8",
      "source": "youtube",
      "title": "This might just be the *messiest* TED Talk of all time #TEDTalks",
      "url": "https://www.youtube.com/watch?v=kQCQwMaSzV8",
      "thumbnail": "https://i4.ytimg.com/vi/kQCQwMaSzV8/hqdefault.jpg",
      "author": "TED",
      "duration": "",
      "duration_seconds": 0,
      "duration_badge": "",
      "views": "",
      "views_raw": 0,
      "danmaku": "",
      "likes": "",
      "likes_raw": 0,
      "category": "教育",
      "description": "Mark Rober spent years trying to land a rover on Mars. Now, the former NASA engineer turned science YouTuber with millions of subscribers is launching a new mission: to teach the next generation of big problem solvers. That's why he's spending 60 million dollars to build a STEM curriculum kids actua",
      "published": 1780323974,
      "published_str": "2026-06-01",
      "embed_id": "kQCQwMaSzV8",
      "embed_src": "youtube",
      "summary": null,
      "favorited": false,
      "score": 3.8
    },
    {
      "id": "youtube_oed0Z2RIs14",
      "source": "youtube",
      "title": "Hannity: Clearly it is time for new leadership in California #shorts #foxnews #news #us",
      "url": "https://www.youtube.com/watch?v=oed0Z2RIs14",
      "thumbnail": "https://i4.ytimg.com/vi/oed0Z2RIs14/hqdefault.jpg",
      "author": "Bloomberg Originals",
      "duration": "",
      "duration_seconds": 0,
      "duration_badge": "",
      "views": "",
      "views_raw": 0,
      "danmaku": "",
      "likes": "",
      "likes_raw": 0,
      "category": "教育",
      "description": "Fox News host Sean Hannity discusses the Los Angeles mayoral race and argues Democratic rule has harmed California on ‘Hannity.’ #fox #media #breakingnews #us #usa #new #news #breaking #foxnews #hannity #seanhannity #hannity #california #losangeles #leadership #politics #political #politicalnews #go",
      "published": 1780455634,
      "published_str": "2026-06-03",
      "embed_id": "oed0Z2RIs14",
      "embed_src": "youtube",
      "summary": null,
      "favorited": false,
      "score": 3.0
    },
    {
      "id": "youtube_6RKouFY4On0",
      "source": "youtube",
      "title": "Gutfeld: The biggest scandal of ALL…",
      "url": "https://www.youtube.com/watch?v=6RKouFY4On0",
      "thumbnail": "https://i3.ytimg.com/vi/6RKouFY4On0/hqdefault.jpg",
      "author": "Bloomberg Originals",
      "duration": "",
      "duration_seconds": 0,
      "duration_badge": "",
      "views": "",
      "views_raw": 0,
      "danmaku": "",
      "likes": "",
      "likes_raw": 0,
      "category": "教育",
      "description": "Fox News host Greg Gutfeld and the ‘Gutfeld!’ panel discuss a former New York Times columnist calling for the ‘de-magafication’ of America. #fox #media #breakingnews #us #usa #new #news #breaking #foxnews #gutfeld #greggutfeld #gutfeldpanel #newyorktimes #maga #demagafication #america #politics #pol",
      "published": 1780455606,
      "published_str": "2026-06-03",
      "embed_id": "6RKouFY4On0",
      "embed_src": "youtube",
      "summary": null,
      "favorited": false,
      "score": 3.0
    },
    {
      "id": "youtube_yH_aLVbehSQ",
      "source": "youtube",
      "title": "Netan-yah-WHOA: Tensions reportedly rise between allies as fresh strikes test fragile ceasefire",
      "url": "https://www.youtube.com/watch?v=yH_aLVbehSQ",
      "thumbnail": "https://i2.ytimg.com/vi/yH_aLVbehSQ/hqdefault.jpg",
      "author": "Bloomberg Originals",
      "duration": "",
      "duration_seconds": 0,
      "duration_badge": "",
      "views": "",
      "views_raw": 0,
      "danmaku": "",
      "likes": "",
      "likes_raw": 0,
      "category": "教育",
      "description": "President Donald Trump reportedly 'steamrolled' Israeli Prime Minister Benjamin Netanyahu during a heated call Monday over Israel's military operations in Lebanon.\n\n\n#fox #media #breakingnews #us #usa #new #news #breaking #foxnews #trump #donaldtrump #netanyahu #benjaminnetanyahu #israel #lebanon #c",
      "published": 1780452902,
      "published_str": "2026-06-03",
      "embed_id": "yH_aLVbehSQ",
      "embed_src": "youtube",
      "summary": null,
      "favorited": false,
      "score": 3.0
    },
    {
      "id": "youtube_8MWKiPWug2k",
      "source": "youtube",
      "title": "Watters: This could shock THE WORLD… #shorts #foxnews #fox #news #usa #us",
      "url": "https://www.youtube.com/watch?v=8MWKiPWug2k",
      "thumbnail": "https://i1.ytimg.com/vi/8MWKiPWug2k/hqdefault.jpg",
      "author": "Bloomberg Originals",
      "duration": "",
      "duration_seconds": 0,
      "duration_badge": "",
      "views": "",
      "views_raw": 0,
      "danmaku": "",
      "likes": "",
      "likes_raw": 0,
      "category": "教育",
      "description": "Fox News host Jesse Watters talks California primary elections, focusing on the gubernatorial and Los Angeles mayoral races, on ‘Jesse Watters Primetime.’ #fox #media #breakingnews #us #usa #new #news #breaking #foxnews #jessewattersprimetime #jessewatters #watters #california #californiaprimary #gu",
      "published": 1780452011,
      "published_str": "2026-06-03",
      "embed_id": "8MWKiPWug2k",
      "embed_src": "youtube",
      "summary": null,
      "favorited": false,
      "score": 3.0
    },
    {
      "id": "youtube_xuQgqrcWm-o",
      "source": "youtube",
      "title": "5 Weird Things We Figured Out On the ISS",
      "url": "https://www.youtube.com/watch?v=xuQgqrcWm-o",
      "thumbnail": "https://i1.ytimg.com/vi/xuQgqrcWm-o/hqdefault.jpg",
      "author": "SciShow",
      "duration": "",
      "duration_seconds": 0,
      "duration_badge": "",
      "views": "",
      "views_raw": 0,
      "danmaku": "",
      "likes": "",
      "likes_raw": 0,
      "category": "教育",
      "description": "Visit https://brilliant.org/scishow/ to get started learning STEM for free for a full 30 days and get 20% off your annual premium subscription.\n\nThe International Space Station has been home to humans for over 25 years. And over the decades, those humans have helped scientists on the ground run a bu",
      "published": 1780421228,
      "published_str": "2026-06-02",
      "embed_id": "xuQgqrcWm-o",
      "embed_src": "youtube",
      "summary": null,
      "favorited": false,
      "score": 3.0
    },
    {
      "id": "youtube_-sYDCt_NFIM",
      "source": "youtube",
      "title": "Sometimes, the more you learn about something, the more curious you become. Follow that curiosity.",
      "url": "https://www.youtube.com/watch?v=-sYDCt_NFIM",
      "thumbnail": "https://i2.ytimg.com/vi/-sYDCt_NFIM/hqdefault.jpg",
      "author": "freeCodeCamp.org",
      "duration": "",
      "duration_seconds": 0,
      "duration_badge": "",
      "views": "",
      "views_raw": 0,
      "danmaku": "",
      "likes": "",
      "likes_raw": 0,
      "category": "教育",
      "description": "Sometimes, the more you learn about something, the more curious you become. Chris talks about following that curiosity with Quincy on the freeCodeCamp podcast.",
      "published": 1780401934,
      "published_str": "2026-06-02",
      "embed_id": "-sYDCt_NFIM",
      "embed_src": "youtube",
      "summary": null,
      "favorited": false,
      "score": 3.0
    },
    {
      "id": "youtube_rZHMzNCIdMU",
      "source": "youtube",
      "title": "My Typical Tuesday",
      "url": "https://www.youtube.com/watch?v=rZHMzNCIdMU",
      "thumbnail": "https://i3.ytimg.com/vi/rZHMzNCIdMU/hqdefault.jpg",
      "author": "Ali Abdaal",
      "duration": "",
      "duration_seconds": 0,
      "duration_badge": "",
      "views": "",
      "views_raw": 0,
      "danmaku": "",
      "likes": "",
      "likes_raw": 0,
      "category": "教育",
      "description": "Master deep focus in 7 days - my free crash course to transform your productivity: https://go.aliabdaal.com/yts260602",
      "published": 1780394425,
      "published_str": "2026-06-02",
      "embed_id": "rZHMzNCIdMU",
      "embed_src": "youtube",
      "summary": null,
      "favorited": false,
      "score": 3.0
    },
    {
      "id": "youtube_MnG0ugK2JAI",
      "source": "youtube",
      "title": "Build Your Own AI Agent – Full Course with OpenAI, Langchain, Render Deployment",
      "url": "https://www.youtube.com/watch?v=MnG0ugK2JAI",
      "thumbnail": "https://i2.ytimg.com/vi/MnG0ugK2JAI/hqdefault.jpg",
      "author": "freeCodeCamp.org",
      "duration": "",
      "duration_seconds": 0,
      "duration_badge": "",
      "views": "",
      "views_raw": 0,
      "danmaku": "",
      "likes": "",
      "likes_raw": 0,
      "category": "教育",
      "description": "Learn to build and deploy intelligent AI agents that bridge the gap between LLMs and real-world automation to handle complex research and data analysis. This comprehensive course takes you from zero to deployment, using OpenAI and Node.js to create a production-ready tool complete with a PostgreSQL ",
      "published": 1780394409,
      "published_str": "2026-06-02",
      "embed_id": "MnG0ugK2JAI",
      "embed_src": "youtube",
      "summary": null,
      "favorited": false,
      "score": 3.0
    },
    {
      "id": "youtube_kS-CGkiPetQ",
      "source": "youtube",
      "title": "How Does Google Maps Actually Work?",
      "url": "https://www.youtube.com/watch?v=kS-CGkiPetQ",
      "thumbnail": "https://i4.ytimg.com/vi/kS-CGkiPetQ/hqdefault.jpg",
      "author": "Veritasium",
      "duration": "",
      "duration_seconds": 0,
      "duration_badge": "",
      "views": "",
      "views_raw": 0,
      "danmaku": "",
      "likes": "",
      "likes_raw": 0,
      "category": "教育",
      "description": "The math behind Google Maps. Sponsored by boot.dev - Click this link https://boot.dev/?promo=VERITASIUM and use our code VERITASIUM to get 25% off your first payment for boot.dev. \n\nIf you’re looking for a molecular modelling kit, try Snatoms, a kit I invented where the atoms snap together magnetica",
      "published": 1780152403,
      "published_str": "2026-05-30",
      "embed_id": "kS-CGkiPetQ",
      "embed_src": "youtube",
      "summary": null,
      "favorited": false,
      "score": 3.0
    },
    {
      "id": "youtube_BlK23YzqXOM",
      "source": "youtube",
      "title": "Why your best ideas usually start as bad ones | Think Like A Musician",
      "url": "https://www.youtube.com/watch?v=BlK23YzqXOM",
      "thumbnail": "https://i3.ytimg.com/vi/BlK23YzqXOM/hqdefault.jpg",
      "author": "TED-Ed",
      "duration": "",
      "duration_seconds": 0,
      "duration_badge": "",
      "views": "",
      "views_raw": 0,
      "danmaku": "",
      "likes": "",
      "likes_raw": 0,
      "category": "教育",
      "description": "Professional songwriters share the importance of embracing mistakes, collaboration, and experimentation in the creative process.\n\n--\n\n\"Think Like A Musician\" connects you with working musicians who want to help the music-curious and music-passionate hone and share the gift of music with the world. P",
      "published": 1779980454,
      "published_str": "2026-05-28",
      "embed_id": "BlK23YzqXOM",
      "embed_src": "youtube",
      "summary": null,
      "favorited": false,
      "score": 3.0
    },
    {
      "id": "youtube_OgFf_J1CP0g",
      "source": "youtube",
      "title": "How An Infinite Hotel Ran Out Of Room",
      "url": "https://www.youtube.com/watch?v=OgFf_J1CP0g",
      "thumbnail": "https://i4.ytimg.com/vi/OgFf_J1CP0g/hqdefault.jpg",
      "author": "Veritasium",
      "duration": "",
      "duration_seconds": 0,
      "duration_badge": "",
      "views": "",
      "views_raw": 0,
      "danmaku": "",
      "likes": "",
      "likes_raw": 0,
      "category": "教育",
      "description": "If there's a hotel with infinite rooms, could it ever be completely full? \n\nCould you run out of space to put everyone? \n\nThe surprising answer is yes -- this is important to know if you're the manager of the Hilbert Hotel.",
      "published": 1779973255,
      "published_str": "2026-05-28",
      "embed_id": "OgFf_J1CP0g",
      "embed_src": "youtube",
      "summary": null,
      "favorited": false,
      "score": 3.0
    },
    {
      "id": "youtube_ALE1EiAdZNo",
      "source": "youtube",
      "title": "The World's Largest Emerald Shouldn't Exist",
      "url": "https://www.youtube.com/watch?v=ALE1EiAdZNo",
      "thumbnail": "https://i2.ytimg.com/vi/ALE1EiAdZNo/hqdefault.jpg",
      "author": "SciShow",
      "duration": "",
      "duration_seconds": 0,
      "duration_badge": "",
      "views": "",
      "views_raw": 0,
      "danmaku": "",
      "likes": "",
      "likes_raw": 0,
      "category": "教育",
      "description": "Subscribe to the SciShow Rocks Box to receive your own Emerald here! https://complexly.info/rocksbox \n\nWe know gemstones are beautiful and highly desirable. But there's one specific gem that's been fought over for decades, and it even has a restraining order filed on it. This is the story of the Bah",
      "published": 1780333231,
      "published_str": "2026-06-01",
      "embed_id": "ALE1EiAdZNo",
      "embed_src": "youtube",
      "summary": null,
      "favorited": false,
      "score": 2.5
    },
    {
      "id": "youtube_nVD3pUEaTjU",
      "source": "youtube",
      "title": "Did you know...Instagram didn't start off as a photo-sharing app?",
      "url": "https://www.youtube.com/watch?v=nVD3pUEaTjU",
      "thumbnail": "https://i3.ytimg.com/vi/nVD3pUEaTjU/hqdefault.jpg",
      "author": "freeCodeCamp.org",
      "duration": "",
      "duration_seconds": 0,
      "duration_badge": "",
      "views": "",
      "views_raw": 0,
      "danmaku": "",
      "likes": "",
      "likes_raw": 0,
      "category": "教育",
      "description": "Did you know...Instagram didn't start off as a photo-sharing app? Ania shares a bit of its history here.",
      "published": 1780316249,
      "published_str": "2026-06-01",
      "embed_id": "nVD3pUEaTjU",
      "embed_src": "youtube",
      "summary": null,
      "favorited": false,
      "score": 2.5
    },
    {
      "id": "youtube_IuhoSd92TFE",
      "source": "youtube",
      "title": "The Odyssey Plan: Stanford's best hack",
      "url": "https://www.youtube.com/watch?v=IuhoSd92TFE",
      "thumbnail": "https://i2.ytimg.com/vi/IuhoSd92TFE/hqdefault.jpg",
      "author": "Ali Abdaal",
      "duration": "",
      "duration_seconds": 0,
      "duration_badge": "",
      "views": "",
      "views_raw": 0,
      "danmaku": "",
      "likes": "",
      "likes_raw": 0,
      "category": "教育",
      "description": "Master deep focus in 7 days - my free crash course to transform your productivity: https://go.aliabdaal.com/yts260601",
      "published": 1780308037,
      "published_str": "2026-06-01",
      "embed_id": "IuhoSd92TFE",
      "embed_src": "youtube",
      "summary": null,
      "favorited": false,
      "score": 2.5
    },
    {
      "id": "youtube_rwrmV2N8QWM",
      "source": "youtube",
      "title": "Couldn’t afford a house. Now he builds his own underground Missouri home",
      "url": "https://www.youtube.com/watch?v=rwrmV2N8QWM",
      "thumbnail": "https://i3.ytimg.com/vi/rwrmV2N8QWM/hqdefault.jpg",
      "author": "Kyle Hill",
      "duration": "",
      "duration_seconds": 0,
      "duration_badge": "",
      "views": "",
      "views_raw": 0,
      "danmaku": "",
      "likes": "",
      "likes_raw": 0,
      "category": "教育",
      "description": "Kyle Yoder couldn't afford to buy a home, so he's been building one himself — by hand, with earth, rubble, and reclaimed materials — on a shared piece of land in northern Missouri.\n\nHis first structure was the Gnome Dome: an 80-square-foot earthbag igloo he rescued from demolition after it was aband",
      "published": 1780267802,
      "published_str": "2026-05-31",
      "embed_id": "rwrmV2N8QWM",
      "embed_src": "youtube",
      "summary": null,
      "favorited": false,
      "score": 2.5
    }
  ],
  "total": 76,
  "page": 1,
  "per_page": 24,
  "has_more": true,
  "categories": [
    "知识",
    "科学科普",
    "社科法律",
    "人文历史",
    "财经商业",
    "科技",
    "数码",
    "计算机技术",
    "科工机械",
    "极客DIY",
    "纪录片",
    "科学探索",
    "校园学习",
    "演讲公开课",
    "职业职场",
    "设计创意",
    "野生技术协会",
    "资讯",
    "环球"
  ],
  "search": null
}